<?xml version="1.0" encoding="UTF-8"?>
<!DOCTYPE svg PUBLIC "-//W3C//DTD SVG 1.1//EN" "http://www.w3.org/Graphics/SVG/1.1/DTD/svg11.dtd">
<!-- Creator: CorelDRAW X7 -->
<svg xmlns="http://www.w3.org/2000/svg" xml:space="preserve" width="150mm" height="92.6822mm" version="1.1" style="shape-rendering:geometricPrecision; text-rendering:geometricPrecision; image-rendering:optimizeQuality; fill-rule:evenodd; clip-rule:evenodd"
viewBox="0 0 15000 9268"
 xmlns:xlink="http://www.w3.org/1999/xlink">
 <defs>
  <style type="text/css">
   <![CDATA[
    .fil2 {fill:#5C5B5B;fill-rule:nonzero}
    .fil0 {fill:#E5AC48;fill-rule:nonzero}
    .fil1 {fill:#F1D7A3;fill-rule:nonzero}
   ]]>
  </style>
 </defs>
 <g id="Capa_x0020_1">
  <metadata id="CorelCorpID_0Corel-Layer"/>
  <g id="_1641269342528">
   <g>
    <path class="fil0" d="M9641 2610l0 1c-7,-3 -254,-82 -343,-108 -91,-25 -223,-36 -323,75 -99,110 -1498,1690 -1498,1690l323 417 1839 -2073 2 -1c0,0 0,0 0,0l0 -1zm-2856 799l1826 -2045c0,0 -254,-82 -344,-107 -90,-26 -223,-37 -322,74 -100,111 -1499,1688 -1499,1688l339 390zm804 -3285l0 0c0,0 -254,-81 -344,-107 -90,-26 -223,-36 -322,74 -87,96 -1766,1965 -2208,2456 -67,75 -67,164 0,245 432,523 2056,2484 2170,2624 132,162 301,199 301,199l380 115c0,0 -2259,-2717 -2333,-2806 -74,-90 -35,-150 18,-208 53,-59 2338,-2592 2338,-2592z"/>
    <path class="fil1" d="M10338 2952l-1 1c-7,-2 -254,-82 -343,-107 -90,-26 -223,-37 -322,74 -100,111 -1746,1941 -1746,1941l323 417 2087 -2323 2 -2c0,0 -1,0 -1,0l1 -1zm-3104 1050l2073 -2296c0,0 -253,-81 -344,-107 -90,-26 -222,-37 -322,74 -100,111 -1746,1939 -1746,1939l339 390zm1051 -3535l0 0c0,0 -253,-82 -343,-108 -91,-26 -223,-36 -323,75 -87,96 -1779,1978 -2214,2461 -65,72 -67,155 -5,229 417,503 2044,2463 2166,2606 140,163 296,214 296,214l380 119c0,0 -2232,-2702 -2306,-2798 -73,-96 -35,-165 21,-226 55,-61 2328,-2572 2328,-2572z"/>
   </g>
   <polygon class="fil2" points="3,8069 3,8123 15000,8123 15000,8069 "/>
   <polygon class="fil2" points="5231,8646 5231,8578 4931,8578 4931,9238 5004,9238 5004,8911 5224,8911 5224,8842 5004,8842 5004,8646 "/>
   <path id="1" class="fil2" d="M5421 8578l-73 0 0 413c0,76 7,136 65,191 44,44 108,68 170,68 67,0 133,-26 178,-76 53,-54 58,-111 58,-183l0 -413 -74 0 0 393c0,52 3,110 -32,152 -31,37 -82,58 -130,58 -48,0 -104,-22 -133,-63 -30,-42 -29,-98 -29,-147l0 -393z"/>
   <polygon id="2" class="fil2" points="5954,9238 6028,9238 6028,8729 6543,9268 6543,8578 6469,8578 6469,9089 5954,8550 "/>
   <path id="3" class="fil2" d="M6680 9238l123 0c103,0 182,-13 261,-83 72,-65 107,-150 107,-246 0,-98 -34,-187 -109,-251 -78,-67 -159,-80 -258,-80l-124 0 0 660zm74 -68l0 -524 53 0c78,0 145,11 205,64 57,50 86,123 86,198 0,74 -28,143 -82,194 -61,57 -128,68 -209,68l-53 0z"/>
   <path id="4" class="fil2" d="M7655 9051l78 187 81 0 -297 -692 -304 692 80 0 80 -187 282 0zm-29 -68l-223 0 113 -265 110 265z"/>
   <path id="5" class="fil2" d="M8390 8631c-59,-43 -124,-64 -197,-64 -189,0 -344,155 -344,344 0,187 157,339 344,339 70,0 140,-24 197,-65l0 -91c-53,52 -125,87 -200,87 -148,0 -268,-127 -268,-273 0,-145 119,-273 266,-273 77,0 149,33 202,87l0 -91z"/>
   <polygon id="6" class="fil2" points="8590,8578 8516,8578 8516,9238 8590,9238 "/>
   <path id="7" class="fil2" d="M9035 8567c-189,0 -345,153 -345,342 0,190 156,341 345,341 188,0 344,-151 344,-341 0,-189 -156,-342 -344,-342zm0 68c151,0 270,123 270,273 0,149 -121,273 -270,273 -150,0 -271,-124 -271,-273 0,-150 119,-273 271,-273zm50 -275l-104 144 44 24 134 -135 -74 -33z"/>
   <polygon id="8" class="fil2" points="9483,9238 9557,9238 9557,8729 10072,9268 10072,8578 9998,8578 9998,9089 9483,8550 "/>
   <polygon class="fil2" points="597,6843 597,6648 0,6648 0,7801 597,7801 597,7605 225,7605 225,7293 583,7293 583,7097 225,7097 225,6843 "/>
   <path id="1" class="fil2" d="M1395 6745c-70,-78 -212,-128 -315,-128 -194,0 -336,154 -336,346 0,179 108,254 257,315 90,35 200,69 200,188 0,89 -57,167 -148,167 -97,0 -178,-80 -208,-168l-146 142c80,133 196,225 355,225 236,0 380,-164 380,-395 0,-387 -458,-306 -458,-500 0,-75 69,-130 141,-130 75,0 130,36 173,95l105 -157z"/>
   <path id="2" class="fil2" d="M2322 6684c-78,-43 -166,-67 -257,-67 -338,0 -569,289 -569,617 0,318 240,598 565,598 93,0 177,-29 261,-69l0 -268c-62,72 -159,122 -255,122 -210,0 -338,-194 -338,-388 0,-199 124,-398 339,-398 97,0 192,46 254,123l0 -270z"/>
   <path id="3" class="fil2" d="M2465 7338c0,281 119,494 428,494 309,0 428,-213 428,-494l0 -690 -224 0 0 645c0,142 -13,343 -204,343 -191,0 -203,-201 -203,-343l0 -645 -225 0 0 690z"/>
   <polygon id="4" class="fil2" points="4077,6843 4077,6648 3481,6648 3481,7801 4077,7801 4077,7605 3705,7605 3705,7293 4063,7293 4063,7097 3705,7097 3705,6843 "/>
   <polygon id="5" class="fil2" points="4452,6648 4227,6648 4227,7801 4770,7801 4770,7605 4452,7605 "/>
   <path id="6" class="fil2" d="M5540 7558l88 243 241 0 -438 -1184 -174 0 -450 1184 237 0 95 -243 401 0zm-63 -184l-274 0 127 -419 3 0 144 419z"/>
   <polygon id="7" class="fil2" points="6976,6843 6976,6648 6380,6648 6380,7801 6976,7801 6976,7605 6605,7605 6605,7293 6963,7293 6963,7097 6605,7097 6605,6843 "/>
   <path id="8" class="fil2" d="M7126 7801l320 0c329,0 558,-251 558,-575 0,-329 -223,-578 -556,-578l-322 0 0 1153zm225 -958l37 0c255,0 384,130 384,381 0,228 -107,381 -384,381l-37 0 0 -762z"/>
   <polygon id="9" class="fil2" points="8339,6648 8115,6648 8115,7801 8339,7801 "/>
   <polygon id="10" class="fil2" points="9075,6843 9075,6648 8503,6648 8503,7801 8728,7801 8728,7293 9054,7293 9054,7097 8728,7097 8728,6843 "/>
   <polygon id="11" class="fil2" points="9436,6648 9211,6648 9211,7801 9436,7801 "/>
   <path id="12" class="fil2" d="M10371 6684c-78,-43 -167,-67 -257,-67 -338,0 -569,289 -569,617 0,318 240,598 565,598 93,0 177,-29 261,-69l0 -268c-63,72 -159,122 -255,122 -210,0 -338,-194 -338,-388 0,-199 123,-398 339,-398 97,0 191,46 254,123l0 -270z"/>
   <path id="13" class="fil2" d="M11156 7558l89 243 240 0 -438 -1184 -174 0 -450 1184 237 0 95 -243 401 0zm-63 -184l-274 0 127 -419 3 0 144 419z"/>
   <path id="14" class="fil2" d="M12264 6684c-78,-43 -167,-67 -257,-67 -339,0 -570,289 -570,617 0,318 241,598 565,598 93,0 177,-29 262,-69l0 -268c-63,72 -159,122 -256,122 -209,0 -338,-194 -338,-388 0,-199 124,-398 340,-398 96,0 191,46 254,123l0 -270z"/>
   <polygon id="15" class="fil2" points="12637,6648 12412,6648 12412,7801 12637,7801 "/>
   <path id="16" class="fil2" d="M13887 7223c0,-343 -227,-606 -571,-606 -344,0 -570,263 -570,606 0,339 218,609 570,609 352,0 571,-270 571,-609zm-233 -9c0,177 -88,396 -338,396 -249,0 -338,-219 -338,-396 0,-187 126,-375 338,-375 213,0 338,188 338,375zm-278 -946l-184 257 109 67 231 -229 -156 -95z"/>
   <polygon id="17" class="fil2" points="13997,7801 14222,7801 14222,7018 14225,7018 14832,7824 14994,7824 14994,6648 14770,6648 14770,7423 14767,7423 14159,6617 13997,6617 "/>
  </g>
 </g>
</svg>
