<?xml version="1.0" encoding="utf-8"?>
<!-- Generator: Adobe Illustrator 19.2.1, SVG Export Plug-In . SVG Version: 6.00 Build 0)  -->
<svg version="1.1" id="Capa_1" xmlns="http://www.w3.org/2000/svg" xmlns:xlink="http://www.w3.org/1999/xlink" x="0px" y="0px"
	 viewBox="0 0 162 59.7" style="enable-background:new 0 0 162 59.7;" xml:space="preserve">
<style type="text/css">
	.st0{fill:#808075;}
	.st1{fill:#AA1E32;}
	.st2{fill:#FFFFFF;}
</style>
<g>
	<path class="st0" d="M54.8,36.2c-1.7,1.7-4.5,1.7-6.2,0c-1.7-1.7-1.7-4.5,0-6.2l8.9-8.9c0.1-0.1,0.2-0.2,0.3-0.3
		c2.1-1.9,4.7-2.9,7.3-2.9c2.8,0,5.5,1.1,7.6,3.2h0l7.1,7v0c0,0,0.1,0.1,0.1,0.1l0.1,0.1c0.1,0.1,0.1,0.1,0.2,0.1
		c0.3,0.2,0.7,0.3,1,0.3h0v0c0.2,0,0.5-0.1,0.8-0.2c0.1,0,0.1,0,0.1-0.1c0.2-0.1,0.4-0.2,0.5-0.4l7.1-7c0.1-0.1,0.2-0.2,0.3-0.3
		c2.1-1.9,4.7-2.9,7.4-2.9c2.7,0,5.5,1.1,7.6,3.2L114,30c1.7,1.7,1.7,4.5,0,6.2c-1.7,1.7-4.5,1.7-6.2,0l-8.9-8.9h0
		c-0.4-0.4-0.9-0.6-1.4-0.6c-0.5,0-1,0.2-1.3,0.5c0,0-0.1,0.1-0.1,0.1l-7.1,7c-0.9,0.9-1.9,1.6-2.9,2.1c-0.3,0.1-0.5,0.2-0.6,0.3
		c-1.3,0.5-2.7,0.8-4,0.8h0c-1.9,0-3.9-0.5-5.7-1.6c-0.3-0.2-0.7-0.4-1-0.7c-0.2-0.2-0.4-0.3-0.6-0.5c-0.1-0.1-0.2-0.2-0.3-0.3
		l-7.1-7c-0.4-0.4-0.9-0.6-1.4-0.6c-0.5,0-0.9,0.2-1.3,0.5c-0.1,0-0.1,0.1-0.1,0.1L54.8,36.2"/>
	<path class="st1" d="M75.1,16.1c-1.7,1.7-4.5,1.7-6.2,0c-1.7-1.7-1.7-4.5,0-6.2l5-5c0.1-0.1,0.2-0.2,0.3-0.3
		c1.3-1.2,2.9-2.1,4.6-2.5c3.6-1,7.5,0,10.4,2.8h0l4.6,4.6c1.7,1.7,1.7,4.5,0,6.2c-1.7,1.7-4.5,1.7-6.2,0L83,11.2h0l0,0
		c-0.6-0.5-1.3-0.7-2-0.5c-0.3,0.1-0.5,0.2-0.8,0.4c0,0.1-0.1,0.1-0.1,0.1L75.1,16.1"/>
	<path class="st2" d="M153.8,50.8h1.2c1.7,0,3.1,0.8,3.1,2.6c0,2-1.4,2.7-3.2,2.7h-1V50.8 M151.8,58h3.2c2.7,0,5.1-1.6,5.1-4.5
		c0-3.3-2.4-4.5-5.3-4.5h-3V58z M148,58h2v-9h-2V58z M141.8,50.7h1.3c0.7,0,1.5,0.1,1.5,1c0,1-0.9,1-1.7,1h-1.2V50.7z M139.8,58h2
		v-3.6h1l1.9,3.6h2.4l-2.3-3.8c1.3-0.2,1.9-1.2,1.9-2.5c0-2.1-1.6-2.7-3.4-2.7h-3.5V58z M132.2,50.8h1.2c1.7,0,3.1,0.8,3.1,2.6
		c0,2-1.4,2.7-3.2,2.7h-1V50.8z M130.2,58h3.2c2.7,0,5.1-1.6,5.1-4.5c0-3.3-2.4-4.5-5.3-4.5h-3V58z M125.6,54.4h-2.2l1.1-2.8
		L125.6,54.4z M119.8,58h2.2l0.8-1.9h3.5L127,58h2.2l-3.9-9h-1.6L119.8,58z M108.7,58h2v-6.9h0L113,58h1.5l2.4-6.9h0V58h2v-9h-3
		l-2.1,5.9h0l-2.1-5.9h-3V58z M103.5,49.7c-0.8-0.7-1.7-0.9-2.8-0.9c-1.8,0-3.4,1-3.4,2.9c0,3,4.2,2.1,4.2,3.8
		c0,0.6-0.7,0.9-1.4,0.9c-0.7,0-1.3-0.3-1.7-0.9L97,57.1c0.9,0.8,1.9,1.1,3,1.1c1.9,0,3.5-1,3.5-3c0-3.2-4.1-2.1-4.1-3.7
		c0-0.7,0.8-0.9,1.3-0.9c0.5,0,1.1,0.2,1.4,0.6L103.5,49.7z M89.7,58h6.3v-1.8h-4.4v-1.8h3.9v-1.8h-3.9v-1.7h4.1V49h-6.1V58z
		 M83.4,50.7h1.3c0.7,0,1.5,0.1,1.5,1c0,1-0.9,1-1.7,1h-1.2V50.7z M81.4,58h2v-3.6h1l1.9,3.6h2.4l-2.3-3.8c1.3-0.2,1.9-1.2,1.9-2.5
		c0-2.1-1.6-2.7-3.4-2.7h-3.5V58z M72.4,53.5c0-1.7,1.1-2.9,2.8-2.9c1.7,0,2.8,1.2,2.8,2.9s-1.1,2.9-2.8,2.9
		C73.5,56.4,72.4,55.2,72.4,53.5z M70.4,53.5c0,2.9,2,4.7,4.9,4.7c2.8,0,4.9-1.8,4.9-4.7s-2-4.7-4.9-4.7
		C72.4,48.7,70.4,50.6,70.4,53.5z M63.2,50.8h1.2c1.7,0,3.1,0.8,3.1,2.6c0,2-1.4,2.7-3.2,2.7h-1V50.8z M61.2,58h3.2
		c2.7,0,5.1-1.6,5.1-4.5c0-3.3-2.4-4.5-5.3-4.5h-3V58z M56.6,54.4h-2.2l1.1-2.8L56.6,54.4z M50.8,58H53l0.8-1.9h3.5L58,58h2.2
		l-3.9-9h-1.6L50.8,58z M50.1,49h-2v5.8c0,0.7,0,1.7-0.9,1.7c-0.4,0-0.8-0.4-0.9-0.8l-1.8,0.4c0.3,1.4,1.3,2.1,2.8,2.1
		c2.4,0,2.9-1.6,2.9-3.2V49z M37.5,58h6.3v-1.8h-4.4v-1.8h3.9v-1.8h-3.9v-1.7h4.1V49h-6.1V58z M31.1,50.7h1.3c0.7,0,1.5,0.1,1.5,1
		c0,1-0.9,1-1.7,1h-1.2V50.7z M29.2,58h2v-3.6h1L34,58h2.4l-2.3-3.8c1.3-0.2,1.9-1.2,1.9-2.5c0-2.1-1.6-2.7-3.4-2.7h-3.5V58z
		 M24.6,54.4h-2.2l1.1-2.8L24.6,54.4z M18.8,58H21l0.8-1.9h3.5L26,58h2.2l-3.9-9h-1.6L18.8,58z M14.9,50.7h1c0.8,0,1.7,0.1,1.7,1.1
		c0,0.8-0.7,1.1-1.4,1.1h-1.3V50.7z M12.9,58h2v-3.5h1.4c1.9,0,3.3-0.6,3.3-2.8c0-2.1-1.6-2.7-3.4-2.7h-3.3V58z M8.3,54.4H6.1
		l1.1-2.8L8.3,54.4z M2.5,58h2.2l0.8-1.9H9L9.7,58H12l-3.9-9H6.4L2.5,58z"/>
</g>
</svg>
