[
    {
        "CodigoPostal": "28100",
        "Escalera": "2",
        "Municipio": "28006",
        "Numero": "111",
        "Piso": "1",
        "Provincia": "28",
        "Puerta": "",
        "TipoVia": "CL",
        "Via": "Constitución"
    },
    {
        "CodigoPostal": "28100",
        "Escalera": "4",
        "Municipio": "28006",
        "Numero": "85",
        "Piso": "6",
        "Provincia": "28",
        "Puerta": "",
        "TipoVia": "AV",
        "Via": "Marques de la Valdavia"
    },
    {
        "CodigoPostal": "14660",
        "Escalera": "",
        "Municipio": "14014",
        "Numero": "12",
        "Piso": "",
        "Provincia": "14",
        "Puerta": "",
        "TipoVia": "AV",
        "Via": "Jaen"
    },
    {
        "CodigoPostal": "14660",
        "Escalera": "",
        "Municipio": "14014",
        "Numero": "36",
        "Piso": "",
        "Provincia": "14",
        "Puerta": "",
        "TipoVia": "CL",
        "Via": "Feria"
      }
]